{
  "board": {
    "3dviewports": [],
    "design_settings": {
      "defaults": {
        "board_outline_line_width": 0.09999999999999999,
        "copper_line_width": 0.19999999999999998,
        "copper_text_italic": false,
        "copper_text_size_h": 1.5,
        "copper_text_size_v": 1.5,
        "copper_text_thickness": 0.3,
        "copper_text_upright": false,
        "courtyard_line_width": 0.049999999999999996,
        "dimension_precision": 4,
        "dimension_units": 3,
        "dimensions": {
          "arrow_length": 1270000,
          "extension_offset": 500000,
          "keep_text_aligned": true,
          "suppress_zeroes": false,
          "text_position": 0,
          "units_format": 1
        },
        "fab_line_width": 0.09999999999999999,
        "fab_text_italic": false,
        "fab_text_size_h": 1.0,
        "fab_text_size_v": 1.0,
        "fab_text_thickness": 0.15,
        "fab_text_upright": false,
        "other_line_width": 0.15,
        "other_text_italic": false,
        "other_text_size_h": 1.0,
        "other_text_size_v": 1.0,
        "other_text_thickness": 0.15,
        "other_text_upright": false,
        "pads": {
          "drill": 3.5,
          "height": 3.5,
          "width": 3.5
        },
        "silk_line_width": 0.15,
        "silk_text_italic": false,
        "silk_text_size_h": 1.0,
        "silk_text_size_v": 1.0,
        "silk_text_thickness": 0.15,
        "silk_text_upright": false,
        "zones": {
          "45_degree_only": false,
          "min_clearance": 0.508
        }
      },
      "diff_pair_dimensions": [
        {
          "gap": 0.0,
          "via_gap": 0.0,
          "width": 0.0
        }
      ],
      "drc_exclusions": [
        "silk_overlap|132249220|29000780|61781602-5dbb-410d-b7aa-d56d36c27739|98bdc89e-61d0-4563-9a0f-8a28109018fc",
        "silk_overlap|132249220|29000780|61781602-5dbb-410d-b7aa-d56d36c27739|ba687cfd-eda3-4511-9a48-682aeb7ec954",
        "silk_overlap|132249220|29000780|df4355aa-1f30-4197-ba25-d24f5bb98a62|98bdc89e-61d0-4563-9a0f-8a28109018fc",
        "silk_overlap|132249220|29000780|df4355aa-1f30-4197-ba25-d24f5bb98a62|ba687cfd-eda3-4511-9a48-682aeb7ec954",
        "silk_overlap|132249220|29249700|bafa1bf1-1485-4975-a0ca-554d79339834|5cccb189-a4a3-4cde-8dc5-88eafb41ddaa",
        "silk_overlap|132249220|29249700|bafa1bf1-1485-4975-a0ca-554d79339834|98bdc89e-61d0-4563-9a0f-8a28109018fc",
        "silk_overlap|132249220|29249700|df4355aa-1f30-4197-ba25-d24f5bb98a62|5cccb189-a4a3-4cde-8dc5-88eafb41ddaa",
        "silk_overlap|132249220|29501160|df4355aa-1f30-4197-ba25-d24f5bb98a62|e4f21013-3ec8-427a-9941-b2677c1138f9",
        "silk_overlap|132249220|29501160|e285b2cd-ebe2-403d-bac4-107c07fbc7fb|98bdc89e-61d0-4563-9a0f-8a28109018fc",
        "silk_overlap|132249220|29501160|e285b2cd-ebe2-403d-bac4-107c07fbc7fb|e4f21013-3ec8-427a-9941-b2677c1138f9",
        "silk_overlap|132499640|28749320|ea3d6022-3544-43e0-ba54-eb3dc1ad7278|98bdc89e-61d0-4563-9a0f-8a28109018fc",
        "silk_overlap|132499640|29000780|24b3686e-7991-4769-862d-510f9f89c0b3|98bdc89e-61d0-4563-9a0f-8a28109018fc",
        "silk_overlap|132499640|29000780|98bdc89e-61d0-4563-9a0f-8a28109018fc|24b3686e-7991-4769-862d-510f9f89c0b3",
        "silk_overlap|132499640|29000780|98bdc89e-61d0-4563-9a0f-8a28109018fc|61781602-5dbb-410d-b7aa-d56d36c27739",
        "silk_overlap|132499640|29000780|98bdc89e-61d0-4563-9a0f-8a28109018fc|ea3d6022-3544-43e0-ba54-eb3dc1ad7278",
        "silk_overlap|132499640|29000780|ba687cfd-eda3-4511-9a48-682aeb7ec954|24b3686e-7991-4769-862d-510f9f89c0b3",
        "silk_overlap|132499640|29000780|ba687cfd-eda3-4511-9a48-682aeb7ec954|61781602-5dbb-410d-b7aa-d56d36c27739",
        "silk_overlap|132499640|29000780|ba687cfd-eda3-4511-9a48-682aeb7ec954|df4355aa-1f30-4197-ba25-d24f5bb98a62",
        "silk_overlap|132499640|29000780|ba687cfd-eda3-4511-9a48-682aeb7ec954|ea3d6022-3544-43e0-ba54-eb3dc1ad7278",
        "silk_overlap|132499640|29249700|5cccb189-a4a3-4cde-8dc5-88eafb41ddaa|24b3686e-7991-4769-862d-510f9f89c0b3",
        "silk_overlap|132499640|29249700|5cccb189-a4a3-4cde-8dc5-88eafb41ddaa|bafa1bf1-1485-4975-a0ca-554d79339834",
        "silk_overlap|132499640|29249700|5cccb189-a4a3-4cde-8dc5-88eafb41ddaa|df4355aa-1f30-4197-ba25-d24f5bb98a62",
        "silk_overlap|132499640|29249700|98bdc89e-61d0-4563-9a0f-8a28109018fc|bafa1bf1-1485-4975-a0ca-554d79339834",
        "silk_overlap|132499640|29501160|98bdc89e-61d0-4563-9a0f-8a28109018fc|df4355aa-1f30-4197-ba25-d24f5bb98a62",
        "silk_overlap|132499640|29501160|98bdc89e-61d0-4563-9a0f-8a28109018fc|e285b2cd-ebe2-403d-bac4-107c07fbc7fb",
        "silk_overlap|132499640|29501160|e4f21013-3ec8-427a-9941-b2677c1138f9|df4355aa-1f30-4197-ba25-d24f5bb98a62",
        "silk_overlap|132499640|29501160|e4f21013-3ec8-427a-9941-b2677c1138f9|e285b2cd-ebe2-403d-bac4-107c07fbc7fb",
        "silk_overlap|132699640|28749320|ea3d6022-3544-43e0-ba54-eb3dc1ad7278|98bdc89e-61d0-4563-9a0f-8a28109018fc",
        "silk_overlap|132699640|29000780|24b3686e-7991-4769-862d-510f9f89c0b3|98bdc89e-61d0-4563-9a0f-8a28109018fc",
        "silk_overlap|133750360|28500400|a3bde2e0-837a-4aae-898e-639999ba7b03|f2cdcd77-678d-418b-b9ce-717af0f26c22",
        "silk_overlap|133750360|28500400|a3bde2e0-837a-4aae-898e-639999ba7b03|fb8ae165-d505-443f-907f-9c464bf06cf7",
        "silk_overlap|133750360|28500400|a95105ff-7a7f-44fb-b716-f5da7649e487|f2cdcd77-678d-418b-b9ce-717af0f26c22",
        "silk_overlap|133750360|28500400|a95105ff-7a7f-44fb-b716-f5da7649e487|fb8ae165-d505-443f-907f-9c464bf06cf7",
        "silk_overlap|133750360|28749320|a3bde2e0-837a-4aae-898e-639999ba7b03|625561d8-e839-4ae1-a687-ef3fc68f7879",
        "silk_overlap|133750360|28749320|ea3d6022-3544-43e0-ba54-eb3dc1ad7278|625561d8-e839-4ae1-a687-ef3fc68f7879",
        "silk_overlap|133750360|28749320|ea3d6022-3544-43e0-ba54-eb3dc1ad7278|ba687cfd-eda3-4511-9a48-682aeb7ec954",
        "silk_overlap|133750360|28749320|ea3d6022-3544-43e0-ba54-eb3dc1ad7278|f2cdcd77-678d-418b-b9ce-717af0f26c22",
        "silk_overlap|133750360|29000780|24b3686e-7991-4769-862d-510f9f89c0b3|5cccb189-a4a3-4cde-8dc5-88eafb41ddaa",
        "silk_overlap|133750360|29000780|24b3686e-7991-4769-862d-510f9f89c0b3|ba687cfd-eda3-4511-9a48-682aeb7ec954",
        "silk_overlap|133750360|29000780|24b3686e-7991-4769-862d-510f9f89c0b3|f2cdcd77-678d-418b-b9ce-717af0f26c22",
        "silk_overlap|133750360|29000780|24b3686e-7991-4769-862d-510f9f89c0b3|f8b872bb-1c3f-4a51-815d-f492f1337148",
        "silk_overlap|133750360|29000780|a3bde2e0-837a-4aae-898e-639999ba7b03|5cccb189-a4a3-4cde-8dc5-88eafb41ddaa",
        "silk_overlap|133750360|29000780|a3bde2e0-837a-4aae-898e-639999ba7b03|ba687cfd-eda3-4511-9a48-682aeb7ec954",
        "silk_overlap|133750360|29000780|a3bde2e0-837a-4aae-898e-639999ba7b03|f8b872bb-1c3f-4a51-815d-f492f1337148",
        "silk_overlap|133750360|29000780|ba687cfd-eda3-4511-9a48-682aeb7ec954|a3bde2e0-837a-4aae-898e-639999ba7b03",
        "silk_overlap|133750360|29249700|5cccb189-a4a3-4cde-8dc5-88eafb41ddaa|a3bde2e0-837a-4aae-898e-639999ba7b03",
        "silk_overlap|134000780|28500400|f2cdcd77-678d-418b-b9ce-717af0f26c22|a95105ff-7a7f-44fb-b716-f5da7649e487",
        "silk_overlap|134000780|28500400|fb8ae165-d505-443f-907f-9c464bf06cf7|a3bde2e0-837a-4aae-898e-639999ba7b03",
        "silk_overlap|134000780|28500400|fb8ae165-d505-443f-907f-9c464bf06cf7|a95105ff-7a7f-44fb-b716-f5da7649e487",
        "silk_overlap|134000780|28749320|625561d8-e839-4ae1-a687-ef3fc68f7879|a3bde2e0-837a-4aae-898e-639999ba7b03",
        "silk_overlap|134000780|28749320|625561d8-e839-4ae1-a687-ef3fc68f7879|ea3d6022-3544-43e0-ba54-eb3dc1ad7278",
        "silk_overlap|134000780|28749320|f2cdcd77-678d-418b-b9ce-717af0f26c22|ea3d6022-3544-43e0-ba54-eb3dc1ad7278",
        "silk_overlap|134000780|29000780|f2cdcd77-678d-418b-b9ce-717af0f26c22|24b3686e-7991-4769-862d-510f9f89c0b3",
        "silk_overlap|134000780|29000780|f2cdcd77-678d-418b-b9ce-717af0f26c22|a3bde2e0-837a-4aae-898e-639999ba7b03",
        "silk_overlap|134000780|29000780|f8b872bb-1c3f-4a51-815d-f492f1337148|24b3686e-7991-4769-862d-510f9f89c0b3",
        "silk_overlap|134000780|29000780|f8b872bb-1c3f-4a51-815d-f492f1337148|a3bde2e0-837a-4aae-898e-639999ba7b03",
        "silk_overlap|55249640|28749320|4795ac83-d201-4c69-89e1-80d7475d85d5|29cabf32-a0c6-4854-a390-3c93ba7d0e05",
        "silk_overlap|55249640|29000780|1abbf4ed-a108-4df3-a693-6f8e6024bfcf|29cabf32-a0c6-4854-a390-3c93ba7d0e05",
        "silk_overlap|55249640|29000780|29cabf32-a0c6-4854-a390-3c93ba7d0e05|4795ac83-d201-4c69-89e1-80d7475d85d5",
        "silk_overlap|55249640|29000780|38934aec-1759-4f61-a3d1-a45d11a19052|4795ac83-d201-4c69-89e1-80d7475d85d5",
        "silk_overlap|56250360|28749320|4795ac83-d201-4c69-89e1-80d7475d85d5|38934aec-1759-4f61-a3d1-a45d11a19052",
        "silk_overlap|56250360|29000780|1abbf4ed-a108-4df3-a693-6f8e6024bfcf|38934aec-1759-4f61-a3d1-a45d11a19052",
        "silk_overlap|56250360|29000780|1abbf4ed-a108-4df3-a693-6f8e6024bfcf|842df153-8f59-41dd-a288-8cda0d8e967a",
        "silk_overlap|56250360|29000780|91ad69a8-b4dd-49a1-92e0-1075c427a2ce|38934aec-1759-4f61-a3d1-a45d11a19052",
        "silk_overlap|56250360|29000780|91ad69a8-b4dd-49a1-92e0-1075c427a2ce|842df153-8f59-41dd-a288-8cda0d8e967a",
        "silk_overlap|75249640|28749320|02acfcd3-4c4d-423b-bf06-9aaf99e5777a|46657df1-0d52-4b58-a8e4-4b0a53753e28",
        "silk_overlap|75249640|29000780|9ff2aa39-573f-44bb-9413-71fc46fc4ab9|02acfcd3-4c4d-423b-bf06-9aaf99e5777a",
        "silk_overlap|75249640|29000780|9ff2aa39-573f-44bb-9413-71fc46fc4ab9|fbcffe80-00cc-4628-a889-8d3f187a2a44",
        "silk_overlap|75249640|29000780|fbcffe80-00cc-4628-a889-8d3f187a2a44|46657df1-0d52-4b58-a8e4-4b0a53753e28",
        "silk_overlap|75249640|29249700|2744eb13-7121-417b-97d8-27acfc9d6c89|fbcffe80-00cc-4628-a889-8d3f187a2a44",
        "silk_overlap|76250360|28749320|02acfcd3-4c4d-423b-bf06-9aaf99e5777a|9ff2aa39-573f-44bb-9413-71fc46fc4ab9",
        "silk_overlap|76250360|29000780|9ff2aa39-573f-44bb-9413-71fc46fc4ab9|ff253a13-4642-4f59-b251-910d6d8d8d0c",
        "silk_overlap|76250360|29000780|fbcffe80-00cc-4628-a889-8d3f187a2a44|2744eb13-7121-417b-97d8-27acfc9d6c89",
        "silk_overlap|76250360|29000780|fbcffe80-00cc-4628-a889-8d3f187a2a44|9ff2aa39-573f-44bb-9413-71fc46fc4ab9",
        "silk_overlap|76250360|29000780|ff253a13-4642-4f59-b251-910d6d8d8d0c|2744eb13-7121-417b-97d8-27acfc9d6c89",
        "silk_overlap|76250360|29000780|ff253a13-4642-4f59-b251-910d6d8d8d0c|9ff2aa39-573f-44bb-9413-71fc46fc4ab9",
        "silk_overlap|76250360|29249700|2744eb13-7121-417b-97d8-27acfc9d6c89|ff253a13-4642-4f59-b251-910d6d8d8d0c"
      ],
      "meta": {
        "version": 2
      },
      "rule_severities": {
        "annular_width": "error",
        "clearance": "error",
        "copper_edge_clearance": "error",
        "courtyards_overlap": "error",
        "diff_pair_gap_out_of_range": "error",
        "diff_pair_uncoupled_length_too_long": "error",
        "drill_out_of_range": "error",
        "duplicate_footprints": "warning",
        "extra_footprint": "warning",
        "footprint_type_mismatch": "error",
        "hole_clearance": "error",
        "hole_near_hole": "error",
        "invalid_outline": "error",
        "item_on_disabled_layer": "error",
        "items_not_allowed": "error",
        "length_out_of_range": "error",
        "malformed_courtyard": "error",
        "microvia_drill_out_of_range": "error",
        "missing_courtyard": "ignore",
        "missing_footprint": "warning",
        "net_conflict": "warning",
        "npth_inside_courtyard": "ignore",
        "padstack": "error",
        "pth_inside_courtyard": "ignore",
        "shorting_items": "error",
        "silk_over_copper": "warning",
        "silk_overlap": "warning",
        "skew_out_of_range": "error",
        "through_hole_pad_without_hole": "error",
        "too_many_vias": "error",
        "track_dangling": "warning",
        "track_width": "error",
        "tracks_crossing": "error",
        "unconnected_items": "error",
        "unresolved_variable": "error",
        "via_dangling": "warning",
        "zone_has_empty_net": "error",
        "zones_intersect": "error"
      },
      "rules": {
        "allow_blind_buried_vias": false,
        "allow_microvias": false,
        "max_error": 0.005,
        "min_clearance": 0.0,
        "min_copper_edge_clearance": 0.0,
        "min_hole_clearance": 0.25,
        "min_hole_to_hole": 0.25,
        "min_microvia_diameter": 0.19999999999999998,
        "min_microvia_drill": 0.09999999999999999,
        "min_silk_clearance": 0.0,
        "min_through_hole_diameter": 0.3,
        "min_track_width": 0.19999999999999998,
        "min_via_annular_width": 0.049999999999999996,
        "min_via_diameter": 0.39999999999999997,
        "solder_mask_clearance": 0.0,
        "solder_mask_min_width": 0.0,
        "use_height_for_length_calcs": true
      },
      "track_widths": [
        0.0
      ],
      "via_dimensions": [
        {
          "diameter": 0.0,
          "drill": 0.0
        }
      ],
      "zones_allow_external_fillets": false,
      "zones_use_no_outline": true
    },
    "layer_presets": [],
    "viewports": []
  },
  "boards": [],
  "cvpcb": {
    "equivalence_files": []
  },
  "erc": {
    "erc_exclusions": [],
    "meta": {
      "version": 0
    },
    "pin_map": [
      [
        0,
        0,
        0,
        0,
        0,
        0,
        1,
        0,
        0,
        0,
        0,
        2
      ],
      [
        0,
        2,
        0,
        1,
        0,
        0,
        1,
        0,
        2,
        2,
        2,
        2
      ],
      [
        0,
        0,
        0,
        0,
        0,
        0,
        1,
        0,
        1,
        0,
        1,
        2
      ],
      [
        0,
        1,
        0,
        0,
        0,
        0,
        1,
        1,
        2,
        1,
        1,
        2
      ],
      [
        0,
        0,
        0,
        0,
        0,
        0,
        1,
        0,
        0,
        0,
        0,
        2
      ],
      [
        0,
        0,
        0,
        0,
        0,
        0,
        0,
        0,
        0,
        0,
        0,
        2
      ],
      [
        1,
        1,
        1,
        1,
        1,
        0,
        1,
        1,
        1,
        1,
        1,
        2
      ],
      [
        0,
        0,
        0,
        1,
        0,
        0,
        1,
        0,
        0,
        0,
        0,
        2
      ],
      [
        0,
        2,
        1,
        2,
        0,
        0,
        1,
        0,
        2,
        2,
        2,
        2
      ],
      [
        0,
        2,
        0,
        1,
        0,
        0,
        1,
        0,
        2,
        0,
        0,
        2
      ],
      [
        0,
        2,
        1,
        1,
        0,
        0,
        1,
        0,
        2,
        0,
        0,
        2
      ],
      [
        2,
        2,
        2,
        2,
        2,
        2,
        2,
        2,
        2,
        2,
        2,
        2
      ]
    ],
    "rule_severities": {
      "bus_definition_conflict": "error",
      "bus_entry_needed": "error",
      "bus_label_syntax": "error",
      "bus_to_bus_conflict": "error",
      "bus_to_net_conflict": "error",
      "different_unit_footprint": "error",
      "different_unit_net": "error",
      "duplicate_reference": "error",
      "duplicate_sheet_names": "error",
      "extra_units": "error",
      "global_label_dangling": "warning",
      "hier_label_mismatch": "error",
      "label_dangling": "error",
      "lib_symbol_issues": "warning",
      "multiple_net_names": "warning",
      "net_not_bus_member": "warning",
      "no_connect_connected": "warning",
      "no_connect_dangling": "warning",
      "pin_not_connected": "error",
      "pin_not_driven": "error",
      "pin_to_pin": "error",
      "power_pin_not_driven": "error",
      "similar_labels": "warning",
      "unannotated": "error",
      "unit_value_mismatch": "error",
      "unresolved_variable": "error",
      "wire_dangling": "error"
    }
  },
  "libraries": {
    "pinned_footprint_libs": [],
    "pinned_symbol_libs": []
  },
  "meta": {
    "filename": "sb16_midibreakout.kicad_pro",
    "version": 1
  },
  "net_settings": {
    "classes": [
      {
        "bus_width": 12.0,
        "clearance": 0.2,
        "diff_pair_gap": 0.25,
        "diff_pair_via_gap": 0.25,
        "diff_pair_width": 0.2,
        "line_style": 0,
        "microvia_diameter": 0.3,
        "microvia_drill": 0.1,
        "name": "Default",
        "pcb_color": "rgba(0, 0, 0, 0.000)",
        "schematic_color": "rgba(0, 0, 0, 0.000)",
        "track_width": 0.25,
        "via_diameter": 0.8,
        "via_drill": 0.4,
        "wire_width": 6.0
      },
      {
        "bus_width": 12.0,
        "clearance": 0.2,
        "diff_pair_gap": 0.25,
        "diff_pair_via_gap": 0.25,
        "diff_pair_width": 0.2,
        "line_style": 0,
        "microvia_diameter": 0.3,
        "microvia_drill": 0.1,
        "name": "Power",
        "nets": [
          "+5V",
          "/GND_IN_SHIELD",
          "GND",
          "GNDA"
        ],
        "pcb_color": "rgba(0, 0, 0, 0.000)",
        "schematic_color": "rgba(0, 0, 0, 0.000)",
        "track_width": 0.5,
        "via_diameter": 0.8,
        "via_drill": 0.4,
        "wire_width": 6.0
      }
    ],
    "meta": {
      "version": 2
    },
    "net_colors": null,
    "netclass_assignments": null,
    "netclass_patterns": []
  },
  "pcbnew": {
    "last_paths": {
      "gencad": "",
      "idf": "",
      "netlist": "",
      "specctra_dsn": "",
      "step": "",
      "vrml": ""
    },
    "page_layout_descr_file": ""
  },
  "schematic": {
    "annotate_start_num": 0,
    "drawing": {
      "dashed_lines_dash_length_ratio": 12.0,
      "dashed_lines_gap_length_ratio": 3.0,
      "default_line_thickness": 6.0,
      "default_text_size": 50.0,
      "field_names": [],
      "intersheets_ref_own_page": false,
      "intersheets_ref_prefix": "",
      "intersheets_ref_short": false,
      "intersheets_ref_show": false,
      "intersheets_ref_suffix": "",
      "junction_size_choice": 3,
      "label_size_ratio": 0.375,
      "pin_symbol_size": 25.0,
      "text_offset_ratio": 0.15
    },
    "legacy_lib_dir": "",
    "legacy_lib_list": [],
    "meta": {
      "version": 1
    },
    "net_format_name": "",
    "ngspice": {
      "fix_include_paths": true,
      "fix_passive_vals": false,
      "meta": {
        "version": 0
      },
      "model_mode": 0,
      "workbook_filename": ""
    },
    "page_layout_descr_file": "",
    "plot_directory": "",
    "spice_adjust_passive_values": false,
    "spice_current_sheet_as_root": false,
    "spice_external_command": "spice \"%I\"",
    "spice_model_current_sheet_as_root": true,
    "spice_save_all_currents": false,
    "spice_save_all_voltages": false,
    "subpart_first_id": 65,
    "subpart_id_separator": 0
  },
  "sheets": [
    [
      "fc5dd00c-7b61-4367-b748-56c5c7caf049",
      ""
    ],
    [
      "05ec919c-ed61-4d71-a1e6-1a3364ce7fcd",
      "Output1"
    ],
    [
      "23881955-3f4a-421c-b1c4-ae2dd6afc4d2",
      "Output2"
    ],
    [
      "2d7702de-7d22-406b-be33-e6769f3dbc18",
      "Output3"
    ],
    [
      "3b27ce67-79f7-41ea-afe0-0b18711e1a93",
      "Throughput"
    ]
  ],
  "text_variables": {}
}
